<?xml version="1.0" encoding="utf-8"?>
<!-- Generator: Adobe Illustrator 19.2.1, SVG Export Plug-In . SVG Version: 6.00 Build 0)  -->
<svg version="1.1" id="Logo" xmlns="http://www.w3.org/2000/svg" xmlns:xlink="http://www.w3.org/1999/xlink" x="0px" y="0px"
	 viewBox="0 0 512 132" style="enable-background:new 0 0 512 132;" xml:space="preserve">
<style type="text/css">
	.st0{fill:#3f3f3f;}
	.st1{fill:#1D5DA7;}
</style>
<g id="XTEZIO">
	<path id="O" class="st0" d="M505.7,48.8c0,23.1-20.4,41.9-45.6,41.9c-25.2,0-45.6-18.8-45.6-41.9S435,7,460.1,7
		C485.3,7,505.7,25.7,505.7,48.8z M460.1,29c-10,0-18,8.9-18,19.8s8.1,19.8,18,19.8s18-8.9,18-19.8S470.1,29,460.1,29z"/>
	<rect id="I" x="377.2" y="6.6" class="st0" width="28.3" height="83.9"/>
	<circle id="_x2E_" class="st0" cx="357.7" cy="80.6" r="9.8"/>
	<path id="Z" class="st0" d="M262.8,6.6c24.8,0.1,49.6,0,74.4,0c0.1,6.1,0.2,15.8,0.2,21.9c-13,14.5-26.3,26.7-38.3,42.1
		c12.8,0,25.5,0.1,38.3,0c0.3,7.2,0.4,12.6,0.5,19.9c-25.5,0-51,0-76.5,0c0.1-6.1,0.2-13.8,0.3-19.9c13.1-14.5,25.4-27.7,38.9-41.9
		c-34-0.2-5.3-0.1-37.8-0.2C262.7,21.2,262.7,13.9,262.8,6.6z"/>
	<path id="E" class="st0" d="M182,6.6c23.6,0,47.2,0.1,70.9,0c0.1,7.2,0.2,14.4,0.2,21.7c-14.4,0.1-28.9,0-43.4,0.1
		c0,2.4,0,7.1,0,9.4c12.7,0.2,27,0.3,39.7,0c0,20.5,0,1.3,0,21.6c-25.1,0.3-26.5,0.2-39.7,0.2c-0.2,2.3,0.2,8.7,0,11
		c43,0.1,0.8,0.1,44.4,0c0,6.8,0,13.1,0,19.9c-24.1-0.1-48.2,0.4-72.3,0C182.1,62.4,181.7,34.6,182,6.6z"/>
	<path id="T" class="st0" d="M100,29c0-7.5,0.1-14.9,0.3-22.4c24.9,0.1,49.8,0,74.7,0c0.2,7.4,0.2,14.9,0.3,22.3
		c-7.9,0.1-15.9,0.1-23.8,0.2c0,20.6,0,40.8,0,61.4c-27.1,0-1.3,0-28.3,0c0.2-20.4,0.1-40.9,0.2-61.3C115.6,29,107.8,29,100,29z"/>
	<path id="X" class="st1" d="M37,46.5c-25.8-38-1.9-2.3-27.3-40.1C20,6.5,29.9,6.6,40.2,6.9c4,6.6,8.1,13.2,12.4,19.6
		c4-6.6,8-13.1,12-19.7c10.5-0.1,20.9-0.2,31.4-0.1C90.2,20,80.2,30.8,72.8,43.3c-3.4,4.3,0.8,8.7,3,12.4
		c13.1,18.5,19.9,29.8,32.9,48.4c130.6-0.3,266.5,0.5,397.1,0.4c0,18.7,0,10,0,21.2c-131.5,0-274.5,0-406,0c-5.8,0-9.1-0.5-12.2-4.9
		c-39.4-57.7,4.8,7-34.9-51.1c-4.8,6.9-9.4,13.9-13.9,21.1C27.9,90.9,17,90.9,6.2,90.9C16,76.7,27.4,60.8,37,46.5z"/>
</g>
</svg>
